Installation plans — install_plans • pkgdepends
…
#> 
#> ✔ Got tibble 3.1.0 (macos) (803.56 kB)
#> 
#> ✔ Got lpSolve 5.6.15 (macos) (1.07 MB)
#> 
#> ✔ Got vctrs 0.3.6 (macos) (1.40 MB)
#> 
#> ✔ Got stringi 1.5.3 (macos) (13.64 MB)
#> 
#> ✔ Got xml2 1.3.2 (macos) (2.34 MB)
#> 
#> ✔ Downloaded 42 packages (29.27 MB) in 15.4s
pdi$get_install_plan()

#> # A tibble: 42 x 44
#>    ref    type  direct directpkg status package version license needscompilation
#>    <chr>  <chr> <lgl>  <lgl>     <chr>  <chr>   <chr>   <chr>   <lgl>           
#>  1 R6     stan… FALSE  FALSE     OK     R6      2.5.0   MIT + … FALSE           
#>  2 asser… stan… FALSE  FALSE     OK     assert… 0.2.1   GPL-3   FALSE           
#>  3 base6… stan… FALSE  FALSE     OK     base64… 0.1-3   GPL-2 … FALSE           
#>  4 callr  stan… FALSE  FALSE     OK     callr   3.5.1   MIT + … FALSE           
#>  5 cli    stan… FALSE  FALSE     OK     cli     2.3.1   MIT + … FALSE           
#>  6 cliapp stan… FALSE  FALSE     OK     cliapp  0.1.1   MIT + … FALSE           
#>  7 crayon stan… FALSE  FALSE     OK     crayon  1.4.1   MIT + … FALSE           
#>  8 curl   stan… FALSE  FALSE     OK     curl    4.3     MIT + … FALSE           
#>  9 desc   stan… FALSE  FALSE     OK     desc    1.3.0   MIT + … FALSE           
#> 10 digest stan… FALSE  FALSE     OK     digest  0.6.27  GPL (>… FALSE           
#> # … with 32 more rows, and 35 more variables: priority <chr>, md5sum <chr>,
#> #   sha256 <chr>, filesize <int>, built <chr>, platform <chr>, rversion <chr>,
#> #   repotype <chr>, repodir <chr>, target <chr>, deps <list>, mirror <chr>,
#> #   sources <list>, remote <list>, error <list>, metadata <list>, extra <list>,
#> #   dep_types <list>, params <list>, cache_status <chr>, lib_status <chr>,
#> #   old_version <chr>, new_version <chr>, fulltarget <chr>,
#> #   fulltarget_tree <chr>, download_status <chr>, download_error <list>,
#> #   file_size <dbl>, library <chr>, binary <lgl>, dependencies <I<list>>,
#> #   installed <chr>, vignettes <lgl>, packaged <lgl>, file <chr>
…
