R6 class for package downloads — new_pkg_download_proposal • pkgdepends
…
#> 
#> 
#> 
#>  Found  1  deps for  0/1  pkgs [⠋] Resolving standard (CRAN/BioC) packages
#>                                                                           
pdl$get_resolution()

#> # A tibble: 86 x 27
#>    ref   type  direct directpkg status package version license needscompilation
#>    <chr> <chr> <lgl>  <lgl>     <chr>  <chr>   <chr>   <chr>   <lgl>           
#>  1 R6    stan… FALSE  FALSE     OK     R6      2.5.0   MIT + … FALSE           
#>  2 asse… stan… FALSE  FALSE     OK     assert… 0.2.1   GPL-3   FALSE           
#>  3 back… stan… FALSE  FALSE     OK     backpo… 1.1.10  GPL-2 … FALSE           
#>  4 base… stan… FALSE  FALSE     OK     base64… 0.1-3   GPL-2 … FALSE           
#>  5 callr stan… FALSE  FALSE     OK     callr   3.5.1   MIT + … FALSE           
#>  6 cli   stan… FALSE  FALSE     OK     cli     2.1.0   MIT + … FALSE           
#>  7 clia… stan… FALSE  FALSE     OK     cliapp  0.1.1   MIT + … FALSE           
#>  8 cray… stan… FALSE  FALSE     OK     crayon  1.3.4   MIT + … FALSE           
#>  9 curl  stan… FALSE  FALSE     OK     curl    4.3     MIT + … FALSE           
#> 10 desc  stan… FALSE  FALSE     OK     desc    1.2.0   MIT + … FALSE           
#> # … with 76 more rows, and 18 more variables: priority <chr>, md5sum <chr>,
#> #   sha256 <chr>, filesize <int>, built <chr>, platform <chr>, rversion <chr>,
#> #   repodir <chr>, target <chr>, deps <list>, mirror <chr>, sources <list>,
#> #   remote <list>, error <list>, metadata <list>, extra <list>,
#> #   dep_types <list>, cache_status <chr>
pdl <- new_pkg_download_proposal("r-lib/pkgdepends")
pdl$resolve()

#> 
#> 
#> 
#>  Found  1  deps for  0/1  pkgs [⠋] Resolving r-lib/pkgdepends
#>  Found  21  deps for  1/1  pkgs [⠙] Resolving standard (CRAN/BioC) packages
#>                                                                            
pdl$get_resolution()

#> # A tibble: 69 x 27
#>    ref   type  direct directpkg status package version license needscompilation
#>    <chr> <chr> <lgl>  <lgl>     <chr>  <chr>   <chr>   <chr>   <lgl>           
#>  1 r-li… gith… TRUE   TRUE      OK     pkgdep… 0.0.0.… MIT + … TRUE            
#>  2 R6    stan… FALSE  FALSE     OK     R6      2.5.0   MIT + … FALSE           
#>  3 asse… stan… FALSE  FALSE     OK     assert… 0.2.1   GPL-3   FALSE           
#>  4 back… stan… FALSE  FALSE     OK     backpo… 1.1.10  GPL-2 … FALSE           
#>  5 callr stan… FALSE  FALSE     OK     callr   3.5.1   MIT + … FALSE           
#>  6 cli   stan… FALSE  FALSE     OK     cli     2.1.0   MIT + … FALSE           
#>  7 cray… stan… FALSE  FALSE     OK     crayon  1.3.4   MIT + … FALSE           
#>  8 curl  stan… FALSE  FALSE     OK     curl    4.3     MIT + … FALSE           
#>  9 desc  stan… FALSE  FALSE     OK     desc    1.2.0   MIT + … FALSE           
#> 10 dige… stan… FALSE  FALSE     OK     digest  0.6.27  GPL (>… FALSE           
#> # … with 59 more rows, and 18 more variables: priority <chr>, md5sum <chr>,
#> #   sha256 <chr>, filesize <int>, built <chr>, platform <chr>, rversion <chr>,
#> #   repodir <chr>, target <glue>, deps <list>, mirror <chr>, sources <list>,
#> #   remote <list>, error <list>, metadata <list>, extra <list>,
#> #   dep_types <list>, cache_status <chr>
…
#>  1.9 MB/s ⸨█████████████⸩ 101% | 52/53 pkg | ETA <1s    | Getting pkgdepends
#>  1.9 MB/s ⸨█████████████⸩ 102% | 52/53 pkg | ETA <1s    | Getting pkgdepends
#>  1.8 MB/s ⸨█████████████⸩ 102% | 52/53 pkg | ETA <1s    | Getting pkgdepends
#>  1.9 MB/s ⸨█████████████⸩ 102% | 52/53 pkg | ETA <1s    | Getting pkgdepends
#>  1.9 MB/s ⸨█████████████⸩ 103% | 52/53 pkg | ETA <1s    | Getting pkgdepends
#>  1.8 MB/s ⸨█████████████⸩ 103% | 52/53 pkg | ETA <1s    | Getting pkgdepends
#>  1.8 MB/s ⸨█████████████⸩ 103% | 52/53 pkg | ETA <1s    | Getting pkgdepends
#>                                                                             
#> ✔ Got pkgdepends 0.0.0.9007 (source) (269.30 kB)
#>  1.8 MB/s ⸨█████████████⸩ 103% | 52/53 pkg | ETA <1s    | Getting pkgdepends
#>                                                                             
#> ✔ Downloaded 36 packages (7.79 MB) in 6.5s
pdl$get_downloads()

#> # A tibble: 69 x 32
#>    ref   type  direct directpkg status package version license needscompilation
#>    <chr> <chr> <lgl>  <lgl>     <chr>  <chr>   <chr>   <chr>   <lgl>           
#>  1 r-li… gith… TRUE   TRUE      OK     pkgdep… 0.0.0.… MIT + … TRUE            
#>  2 R6    stan… FALSE  FALSE     OK     R6      2.5.0   MIT + … FALSE           
#>  3 asse… stan… FALSE  FALSE     OK     assert… 0.2.1   GPL-3   FALSE           
#>  4 back… stan… FALSE  FALSE     OK     backpo… 1.1.10  GPL-2 … FALSE           
#>  5 callr stan… FALSE  FALSE     OK     callr   3.5.1   MIT + … FALSE           
#>  6 cli   stan… FALSE  FALSE     OK     cli     2.1.0   MIT + … FALSE           
#>  7 cray… stan… FALSE  FALSE     OK     crayon  1.3.4   MIT + … FALSE           
#>  8 curl  stan… FALSE  FALSE     OK     curl    4.3     MIT + … FALSE           
#>  9 desc  stan… FALSE  FALSE     OK     desc    1.2.0   MIT + … FALSE           
#> 10 dige… stan… FALSE  FALSE     OK     digest  0.6.27  GPL (>… FALSE           
#> # … with 59 more rows, and 23 more variables: priority <chr>, md5sum <chr>,
#> #   sha256 <chr>, filesize <int>, built <chr>, platform <chr>, rversion <chr>,
#> #   repodir <chr>, target <glue>, deps <list>, mirror <chr>, sources <list>,
#> #   remote <list>, error <list>, metadata <list>, extra <list>,
#> #   dep_types <list>, cache_status <chr>, fulltarget <chr>,
#> #   fulltarget_tree <chr>, download_status <chr>, download_error <list>,
#> #   file_size <dbl>
…
#>                                                                            
#> ✔ Got rstudioapi 0.11 (macos) (257.65 kB)
#>  594 kB/s ⸨███████████  ⸩  88% |  6/10 pkg | ETA <1s    | Getting pkgload, 
#>                                                                            
#> ✔ Got pkgload 1.1.0 (source) (58.05 kB)
#>  594 kB/s ⸨███████████  ⸩  88% |  6/10 pkg | ETA <1s    | Getting pkgload, 
#>                                                                            
#> ✔ Got rstudioapi 0.11 (source) (98.08 kB)
#>  594 kB/s ⸨███████████  ⸩  88% |  6/10 pkg | ETA <1s    | Getting pkgload, 
#>  672 kB/s ⸨██████████████⸩ 111% | 10/10 pkg | ETA <1s    | Getting pkgload and 
#>                                                                                
#> ✔ Downloaded 4 packages (564.65 kB) in 863ms
pdl$get_downloads()

#> # A tibble: 36 x 32
#>    ref   type  direct directpkg status package version license needscompilation
#>    <chr> <chr> <lgl>  <lgl>     <chr>  <chr>   <chr>   <chr>   <lgl>           
#>  1 R6    stan… FALSE  FALSE     OK     R6      2.5.0   MIT + … FALSE           
#>  2 asse… stan… FALSE  FALSE     OK     assert… 0.2.1   GPL-3   FALSE           
#>  3 back… stan… FALSE  FALSE     OK     backpo… 1.1.10  GPL-2 … FALSE           
#>  4 callr stan… FALSE  FALSE     OK     callr   3.5.1   MIT + … FALSE           
#>  5 cli   stan… FALSE  FALSE     OK     cli     2.1.0   MIT + … FALSE           
#>  6 cray… stan… FALSE  FALSE     OK     crayon  1.3.4   MIT + … FALSE           
#>  7 desc  stan… FALSE  FALSE     OK     desc    1.2.0   MIT + … FALSE           
#>  8 fansi stan… FALSE  FALSE     OK     fansi   0.4.1   GPL (>… FALSE           
#>  9 glue  stan… FALSE  FALSE     OK     glue    1.4.2   MIT + … FALSE           
#> 10 pkgb… stan… FALSE  FALSE     OK     pkgbui… 1.1.0   GPL-3   FALSE           
#> # … with 26 more rows, and 23 more variables: priority <chr>, md5sum <chr>,
#> #   sha256 <chr>, filesize <int>, built <chr>, platform <chr>, rversion <chr>,
#> #   repodir <chr>, target <chr>, deps <list>, mirror <chr>, sources <list>,
#> #   remote <list>, error <list>, metadata <list>, extra <list>,
#> #   dep_types <list>, cache_status <chr>, fulltarget <chr>,
#> #   fulltarget_tree <chr>, download_status <chr>, download_error <list>,
#> #   file_size <dbl>
…
