R6 class for package download and installation. — new_pkg_installation_proposal • pkgdepends
…
#> ℹ Creating library directory: /var/folders/24/8k48jl6d249_n_qfxwsl6xvm0000gn/T//RtmpPqFHsj/file8f65e2b9b3e

pdi$resolve()
pdi$get_resolution()

#> # A tibble: 84 x 29
#>    ref    type  direct directpkg status package version license needscompilation
#>    <chr>  <chr> <lgl>  <lgl>     <chr>  <chr>   <chr>   <chr>   <lgl>           
#>  1 R6     stan… FALSE  FALSE     OK     R6      2.5.0   MIT + … FALSE           
#>  2 asser… stan… FALSE  FALSE     OK     assert… 0.2.1   GPL-3   FALSE           
#>  3 base6… stan… FALSE  FALSE     OK     base64… 0.1-3   GPL-2 … FALSE           
#>  4 callr  stan… FALSE  FALSE     OK     callr   3.5.1   MIT + … FALSE           
#>  5 cli    stan… FALSE  FALSE     OK     cli     2.3.1   MIT + … FALSE           
#>  6 cliapp stan… FALSE  FALSE     OK     cliapp  0.1.1   MIT + … FALSE           
#>  7 crayon stan… FALSE  FALSE     OK     crayon  1.4.1   MIT + … FALSE           
#>  8 curl   stan… FALSE  FALSE     OK     curl    4.3     MIT + … FALSE           
#>  9 desc   stan… FALSE  FALSE     OK     desc    1.3.0   MIT + … FALSE           
#> 10 digest stan… FALSE  FALSE     OK     digest  0.6.27  GPL (>… FALSE           
#> # … with 74 more rows, and 20 more variables: priority <chr>, md5sum <chr>,
#> #   sha256 <chr>, filesize <int>, built <chr>, platform <chr>, rversion <chr>,
#> #   repotype <chr>, repodir <chr>, target <chr>, deps <list>, mirror <chr>,
#> #   sources <list>, remote <list>, error <list>, metadata <list>, extra <list>,
#> #   dep_types <list>, params <list>, cache_status <chr>
pdi <- new_pkg_installation_proposal(
  "r-lib/pkgdepends",
  config = list(library = tempfile())
)

#> ℹ Creating library directory: /var/folders/24/8k48jl6d249_n_qfxwsl6xvm0000gn/T//RtmpPqFHsj/file8f652216617
pdi$resolve()
pdi$get_resolution()

#> # A tibble: 67 x 29
#>    ref    type  direct directpkg status package version license needscompilation
#>    <chr>  <chr> <lgl>  <lgl>     <chr>  <chr>   <chr>   <chr>   <lgl>           
#>  1 r-lib… gith… TRUE   TRUE      OK     pkgdep… 0.0.0.… MIT + … TRUE            
#>  2 R6     stan… FALSE  FALSE     OK     R6      2.5.0   MIT + … FALSE           
#>  3 asser… stan… FALSE  FALSE     OK     assert… 0.2.1   GPL-3   FALSE           
#>  4 callr  stan… FALSE  FALSE     OK     callr   3.5.1   MIT + … FALSE           
#>  5 cli    stan… FALSE  FALSE     OK     cli     2.3.1   MIT + … FALSE           
#>  6 crayon stan… FALSE  FALSE     OK     crayon  1.4.1   MIT + … FALSE           
#>  7 curl   stan… FALSE  FALSE     OK     curl    4.3     MIT + … FALSE           
#>  8 desc   stan… FALSE  FALSE     OK     desc    1.3.0   MIT + … FALSE           
#>  9 digest stan… FALSE  FALSE     OK     digest  0.6.27  GPL (>… FALSE           
#> 10 ellip… stan… FALSE  FALSE     OK     ellips… 0.3.1   GPL-3   FALSE           
#> # … with 57 more rows, and 20 more variables: priority <chr>, md5sum <chr>,
#> #   sha256 <chr>, filesize <int>, built <chr>, platform <chr>, rversion <chr>,
#> #   repotype <chr>, repodir <chr>, target <glue>, deps <list>, mirror <chr>,
#> #   sources <list>, remote <list>, error <list>, metadata <list>, extra <list>,
#> #   dep_types <list>, params <list>, cache_status <chr>
…
#> ✔ Cached copy of lpSolve 5.6.15 (macos) is the latest build
#> ✔ Cached copy of pillar 1.5.1 (macos) is the latest build
#> ✔ Cached copy of pkgconfig 2.0.3 (macos) is the latest build
#> ✔ Cached copy of prettycode 1.1.0 (macos) is the latest build
#> ✔ Cached copy of prettyunits 1.1.1 (macos) is the latest build
#> ✔ Cached copy of progress 1.2.2 (macos) is the latest build
#> ✔ Cached copy of rematch2 2.1.2 (macos) is the latest build
#> ✔ Cached copy of selectr 0.4-2 (macos) is the latest build
#> ✔ Cached copy of stringr 1.4.0 (macos) is the latest build
#> ✔ Cached copy of utf8 1.1.4 (macos) is the latest build
#> ✔ Cached copy of uuid 0.1-4 (macos) is the latest build
#> ✔ Cached copy of xml2 1.3.2 (macos) is the latest build
pdi$get_install_plan()

#> # A tibble: 42 x 44
#>    ref    type  direct directpkg status package version license needscompilation
#>    <chr>  <chr> <lgl>  <lgl>     <chr>  <chr>   <chr>   <chr>   <lgl>           
#>  1 R6     stan… FALSE  FALSE     OK     R6      2.5.0   MIT + … FALSE           
#>  2 asser… stan… FALSE  FALSE     OK     assert… 0.2.1   GPL-3   FALSE           
#>  3 base6… stan… FALSE  FALSE     OK     base64… 0.1-3   GPL-2 … FALSE           
#>  4 callr  stan… FALSE  FALSE     OK     callr   3.5.1   MIT + … FALSE           
#>  5 cli    stan… FALSE  FALSE     OK     cli     2.3.1   MIT + … FALSE           
#>  6 cliapp stan… FALSE  FALSE     OK     cliapp  0.1.1   MIT + … FALSE           
#>  7 crayon stan… FALSE  FALSE     OK     crayon  1.4.1   MIT + … FALSE           
#>  8 curl   stan… FALSE  FALSE     OK     curl    4.3     MIT + … FALSE           
#>  9 desc   stan… FALSE  FALSE     OK     desc    1.3.0   MIT + … FALSE           
#> 10 digest stan… FALSE  FALSE     OK     digest  0.6.27  GPL (>… FALSE           
#> # … with 32 more rows, and 35 more variables: priority <chr>, md5sum <chr>,
#> #   sha256 <chr>, filesize <int>, built <chr>, platform <chr>, rversion <chr>,
#> #   repotype <chr>, repodir <chr>, target <chr>, deps <list>, mirror <chr>,
#> #   sources <list>, remote <list>, error <list>, metadata <list>, extra <list>,
#> #   dep_types <list>, params <list>, cache_status <chr>, lib_status <chr>,
#> #   old_version <chr>, new_version <chr>, fulltarget <chr>,
#> #   fulltarget_tree <chr>, download_status <chr>, download_error <list>,
#> #   file_size <dbl>, library <chr>, binary <lgl>, dependencies <I<list>>,
#> #   installed <chr>, vignettes <lgl>, packaged <lgl>, file <chr>
…
