R6 class for package dependency lookup — new_pkg_deps • pkgdepends
…
#>   - library: /var/folders/24/8k48jl6d249_n_qfxwsl6xvm0000gn/T//Rtmp6e3Ael/filebd0554ed471
#>   - cache_dir: /var/folders/24/8k48jl6d249_n_qfxwsl6xvm0000gn/T//Rtmp6e3Ael/filebd043ca8904
#>   - package_cache_dir: <default>
#>   - metadata_cache_dir: /var/folders/24/8k48jl6d249_n_qfxwsl6xvm0000gn/T//Rtmp6e3Ael/filebd025e98861
#>   - platforms: macos, source
#>   - cran-mirror: https://cloud.r-project.org
#>   - dependencies: direct: Depends, Imports, LinkingTo, indirect: Depends, Imports, LinkingTo
#>   - r-versions: 4.0.4
#>   - build-vignettes: FALSE
#>   - metadata-update-after: 24 hours
pd <- new_pkg_deps("pak")
pd$resolve()
pd$get_resolution()

#> # A tibble: 84 x 27
#>    ref   type  direct directpkg status package version license needscompilation
#>    <chr> <chr> <lgl>  <lgl>     <chr>  <chr>   <chr>   <chr>   <lgl>           
#>  1 R6    stan… FALSE  FALSE     OK     R6      2.5.0   MIT + … FALSE           
#>  2 asse… stan… FALSE  FALSE     OK     assert… 0.2.1   GPL-3   FALSE           
#>  3 base… stan… FALSE  FALSE     OK     base64… 0.1-3   GPL-2 … FALSE           
#>  4 callr stan… FALSE  FALSE     OK     callr   3.5.1   MIT + … FALSE           
#>  5 cli   stan… FALSE  FALSE     OK     cli     2.3.0   MIT + … FALSE           
#>  6 clia… stan… FALSE  FALSE     OK     cliapp  0.1.1   MIT + … FALSE           
#>  7 cray… stan… FALSE  FALSE     OK     crayon  1.4.1   MIT + … FALSE           
#>  8 curl  stan… FALSE  FALSE     OK     curl    4.3     MIT + … FALSE           
#>  9 desc  stan… FALSE  FALSE     OK     desc    1.2.0   MIT + … FALSE           
#> 10 dige… stan… FALSE  FALSE     OK     digest  0.6.27  GPL (>… FALSE           
#> # … with 74 more rows, and 18 more variables: priority <chr>, md5sum <chr>,
#> #   sha256 <chr>, filesize <int>, built <chr>, platform <chr>, rversion <chr>,
#> #   repodir <chr>, target <chr>, deps <list>, mirror <chr>, sources <list>,
#> #   remote <list>, error <list>, metadata <list>, extra <list>,
#> #   dep_types <list>, cache_status <chr>
pd <- new_pkg_deps("r-lib/pkgdepends")
pd$resolve()

#> ! Using bundled GitHub PAT. Please add your own PAT using `gitcreds::gitcreds_set()`.
pd$get_resolution()

#> # A tibble: 67 x 27
#>    ref   type  direct directpkg status package version license needscompilation
#>    <chr> <chr> <lgl>  <lgl>     <chr>  <chr>   <chr>   <chr>   <lgl>           
#>  1 r-li… gith… TRUE   TRUE      OK     pkgdep… 0.0.0.… MIT + … TRUE            
#>  2 R6    stan… FALSE  FALSE     OK     R6      2.5.0   MIT + … FALSE           
#>  3 asse… stan… FALSE  FALSE     OK     assert… 0.2.1   GPL-3   FALSE           
#>  4 callr stan… FALSE  FALSE     OK     callr   3.5.1   MIT + … FALSE           
#>  5 cli   stan… FALSE  FALSE     OK     cli     2.3.0   MIT + … FALSE           
#>  6 cray… stan… FALSE  FALSE     OK     crayon  1.4.1   MIT + … FALSE           
#>  7 curl  stan… FALSE  FALSE     OK     curl    4.3     MIT + … FALSE           
#>  8 desc  stan… FALSE  FALSE     OK     desc    1.2.0   MIT + … FALSE           
#>  9 dige… stan… FALSE  FALSE     OK     digest  0.6.27  GPL (>… FALSE           
#> 10 elli… stan… FALSE  FALSE     OK     ellips… 0.3.1   GPL-3   FALSE           
#> # … with 57 more rows, and 18 more variables: priority <chr>, md5sum <chr>,
#> #   sha256 <chr>, filesize <int>, built <chr>, platform <chr>, rversion <chr>,
#> #   repodir <chr>, target <glue>, deps <list>, mirror <chr>, sources <list>,
#> #   remote <list>, error <list>, metadata <list>, extra <list>,
#> #   dep_types <list>, cache_status <chr>
…
