R6 class for package downloads — new_pkg_download_proposal • pkgdepends
…
#> "https://cloud.r-project.org" 
#> 
#> ## cache_dir
#> <default>
#> [1] "/tmp/RtmpwsTG3J/file303a63cbe52e"
#> 
#> ## r_versions
#> <default>
#> [1] "4.1.2"
#> 
# Method resolve()
pdl <- new_pkg_download_proposal("pak")
pdl$resolve()
pdl$get_resolution()
#> # A tibble: 84 × 29
#>    ref    type  direct directpkg status package version license needscompilation
#>    <chr>  <chr> <lgl>  <lgl>     <chr>  <chr>   <chr>   <chr>   <lgl>           
#>  1 R6     stan… FALSE  FALSE     OK     R6      2.5.1   MIT + … FALSE           
#>  2 asser… stan… FALSE  FALSE     OK     assert… 0.2.1   GPL-3   FALSE           
#>  3 base6… stan… FALSE  FALSE     OK     base64… 0.1-3   GPL-2 … TRUE            
#>  4 callr  stan… FALSE  FALSE     OK     callr   3.7.0   MIT + … FALSE           
#>  5 cli    stan… FALSE  FALSE     OK     cli     3.1.0   MIT + … TRUE            
#>  6 cliapp stan… FALSE  FALSE     OK     cliapp  0.1.1   MIT + … FALSE           
#>  7 crayon stan… FALSE  FALSE     OK     crayon  1.4.2   MIT + … FALSE           
#>  8 curl   stan… FALSE  FALSE     OK     curl    4.3.2   MIT + … TRUE            
#>  9 desc   stan… FALSE  FALSE     OK     desc    1.4.0   MIT + … FALSE           
#> 10 digest stan… FALSE  FALSE     OK     digest  0.6.28  GPL (>… TRUE            
#> # … with 74 more rows, and 20 more variables: priority <chr>, md5sum <chr>,
#> #   sha256 <chr>, filesize <int>, built <chr>, platform <chr>, rversion <chr>,
#> #   repotype <chr>, repodir <chr>, target <chr>, deps <list>, mirror <chr>,
#> #   sources <list>, remote <list>, error <list>, metadata <list>, extra <list>,
#> #   dep_types <list>, params <list>, cache_status <chr>
# Method get_resolution()
pdl <- new_pkg_download_proposal("r-lib/pkgdepends")
pdl$resolve()
pdl$get_resolution()
#> # A tibble: 66 × 29
#>    ref    type  direct directpkg status package version license needscompilation
#>    <chr>  <chr> <lgl>  <lgl>     <chr>  <chr>   <chr>   <chr>   <lgl>           
#>  1 r-lib… gith… TRUE   TRUE      OK     pkgdep… 0.1.2.… MIT + … TRUE            
#>  2 R6     stan… FALSE  FALSE     OK     R6      2.5.1   MIT + … FALSE           
#>  3 callr  stan… FALSE  FALSE     OK     callr   3.7.0   MIT + … FALSE           
#>  4 cli    stan… FALSE  FALSE     OK     cli     3.1.0   MIT + … TRUE            
#>  5 crayon stan… FALSE  FALSE     OK     crayon  1.4.2   MIT + … FALSE           
#>  6 curl   stan… FALSE  FALSE     OK     curl    4.3.2   MIT + … TRUE            
#>  7 desc   stan… FALSE  FALSE     OK     desc    1.4.0   MIT + … FALSE           
#>  8 ellip… stan… FALSE  FALSE     OK     ellips… 0.3.2   MIT + … TRUE            
#>  9 fansi  stan… FALSE  FALSE     OK     fansi   0.5.0   GPL (>… TRUE            
#> 10 filel… stan… FALSE  FALSE     OK     filelo… 1.0.2   MIT + … TRUE            
#> # … with 56 more rows, and 20 more variables: priority <chr>, md5sum <chr>,
#> #   sha256 <chr>, filesize <int>, built <chr>, platform <chr>, rversion <chr>,
#> #   repotype <chr>, repodir <chr>, target <glue>, deps <list>, mirror <chr>,
#> #   sources <list>, remote <list>, error <list>, metadata <list>, extra <list>,
#> #   dep_types <list>, params <list>, cache_status <chr>
…
#> ✔ Got lpSolve 5.6.15 (source) (206.86 kB)
#> ✔ Got uuid 1.0-3 (source) (72.00 kB)
#> ✔ Got withr 2.4.2 (source) (94.28 kB)
#> ✔ Got assertthat 0.2.1 (source) (12.74 kB)
#> ✔ Got rappdirs 0.3.3 (source) (12.29 kB)
#> ✔ Got curl 4.3.2 (source) (138.88 kB)
#> ✔ Got magrittr 2.0.1 (source) (4.80 kB)
#> ✔ Got jsonlite 1.7.2 (source) (160.93 kB)
#> ✔ Got lpSolve 5.6.15 (source) (206.86 kB)
#> ✔ Got tibble 3.1.6 (source) (477.20 kB)
#> ✔ Got vctrs 0.3.8 (source) (782.61 kB)
#> ✔ Got pillar 1.6.4 (source) (836.31 kB)
#> ✔ Got rlang 0.4.12 (source) (600.90 kB)
pdl$get_downloads()
#> # A tibble: 66 × 34
#>    ref    type  direct directpkg status package version license needscompilation
#>    <chr>  <chr> <lgl>  <lgl>     <chr>  <chr>   <chr>   <chr>   <lgl>           
#>  1 r-lib… gith… TRUE   TRUE      OK     pkgdep… 0.1.2.… MIT + … TRUE            
#>  2 R6     stan… FALSE  FALSE     OK     R6      2.5.1   MIT + … FALSE           
#>  3 callr  stan… FALSE  FALSE     OK     callr   3.7.0   MIT + … FALSE           
#>  4 cli    stan… FALSE  FALSE     OK     cli     3.1.0   MIT + … TRUE            
#>  5 crayon stan… FALSE  FALSE     OK     crayon  1.4.2   MIT + … FALSE           
#>  6 curl   stan… FALSE  FALSE     OK     curl    4.3.2   MIT + … TRUE            
#>  7 desc   stan… FALSE  FALSE     OK     desc    1.4.0   MIT + … FALSE           
#>  8 ellip… stan… FALSE  FALSE     OK     ellips… 0.3.2   MIT + … TRUE            
#>  9 fansi  stan… FALSE  FALSE     OK     fansi   0.5.0   GPL (>… TRUE            
#> 10 filel… stan… FALSE  FALSE     OK     filelo… 1.0.2   MIT + … TRUE            
#> # … with 56 more rows, and 25 more variables: priority <chr>, md5sum <chr>,
#> #   sha256 <chr>, filesize <int>, built <chr>, platform <chr>, rversion <chr>,
#> #   repotype <chr>, repodir <chr>, target <glue>, deps <list>, mirror <chr>,
#> #   sources <list>, remote <list>, error <list>, metadata <list>, extra <list>,
#> #   dep_types <list>, params <list>, cache_status <chr>, fulltarget <chr>,
#> #   fulltarget_tree <chr>, download_status <chr>, download_error <list>,
#> #   file_size <dbl>
…
