R6 class for package dependency lookup — new_pkg_deps • pkgdepends
…
#> 
#> ✔ Updated metadata database: 3.04 MB in 7 files.
#> 
#> ℹ Updating metadata database
#> ✔ Updating metadata database ... done
#> 
pd$get_resolution()

#> # A tibble: 84 x 29
#>    ref    type  direct directpkg status package version license needscompilation
#>    <chr>  <chr> <lgl>  <lgl>     <chr>  <chr>   <chr>   <chr>   <lgl>           
#>  1 R6     stan… FALSE  FALSE     OK     R6      2.5.0   MIT + … FALSE           
#>  2 asser… stan… FALSE  FALSE     OK     assert… 0.2.1   GPL-3   FALSE           
#>  3 base6… stan… FALSE  FALSE     OK     base64… 0.1-3   GPL-2 … TRUE            
#>  4 callr  stan… FALSE  FALSE     OK     callr   3.7.0   MIT + … FALSE           
#>  5 cli    stan… FALSE  FALSE     OK     cli     2.5.0   MIT + … FALSE           
#>  6 cliapp stan… FALSE  FALSE     OK     cliapp  0.1.1   MIT + … FALSE           
#>  7 crayon stan… FALSE  FALSE     OK     crayon  1.4.1   MIT + … FALSE           
#>  8 curl   stan… FALSE  FALSE     OK     curl    4.3.1   MIT + … TRUE            
#>  9 desc   stan… FALSE  FALSE     OK     desc    1.3.0   MIT + … FALSE           
#> 10 digest stan… FALSE  FALSE     OK     digest  0.6.27  GPL (>… TRUE            
#> # … with 74 more rows, and 20 more variables: priority <chr>, md5sum <chr>,
#> #   sha256 <chr>, filesize <int>, built <chr>, platform <chr>, rversion <chr>,
#> #   repotype <chr>, repodir <chr>, target <chr>, deps <list>, mirror <chr>,
#> #   sources <list>, remote <list>, error <list>, metadata <list>, extra <list>,
#> #   dep_types <list>, params <list>, cache_status <chr>
# Method get_resolution()
pd <- new_pkg_deps("r-lib/pkgdepends")
pd$resolve()
pd$get_resolution()

#> # A tibble: 67 x 29
#>    ref    type  direct directpkg status package version license needscompilation
#>    <chr>  <chr> <lgl>  <lgl>     <chr>  <chr>   <chr>   <chr>   <lgl>           
#>  1 r-lib… gith… TRUE   TRUE      OK     pkgdep… 0.1.1.… MIT + … TRUE            
#>  2 R6     stan… FALSE  FALSE     OK     R6      2.5.0   MIT + … FALSE           
#>  3 asser… stan… FALSE  FALSE     OK     assert… 0.2.1   GPL-3   FALSE           
#>  4 callr  stan… FALSE  FALSE     OK     callr   3.7.0   MIT + … FALSE           
#>  5 cli    stan… FALSE  FALSE     OK     cli     2.5.0   MIT + … FALSE           
#>  6 crayon stan… FALSE  FALSE     OK     crayon  1.4.1   MIT + … FALSE           
#>  7 curl   stan… FALSE  FALSE     OK     curl    4.3.1   MIT + … TRUE            
#>  8 desc   stan… FALSE  FALSE     OK     desc    1.3.0   MIT + … FALSE           
#>  9 digest stan… FALSE  FALSE     OK     digest  0.6.27  GPL (>… TRUE            
#> 10 ellip… stan… FALSE  FALSE     OK     ellips… 0.3.2   MIT + … TRUE            
#> # … with 57 more rows, and 20 more variables: priority <chr>, md5sum <chr>,
#> #   sha256 <chr>, filesize <int>, built <chr>, platform <chr>, rversion <chr>,
#> #   repotype <chr>, repodir <chr>, target <glue>, deps <list>, mirror <chr>,
#> #   sources <list>, remote <list>, error <list>, metadata <list>, extra <list>,
#> #   dep_types <list>, params <list>, cache_status <chr>
…
